[
  {
    "cumulative": 17580,
    "readingDate": "2019-03-28T00:00:00.000Z"
  },
  {
    "cumulative": 17759,
    "readingDate": "2019-04-15T00:00:00.000Z"
  },
  {
    "cumulative": 18002,
    "readingDate": "2019-05-08T00:00:00.000Z"
  },
  {
    "cumulative": 18270,
    "readingDate": "2019-06-18T00:00:00.000Z"
  },
  {
    "cumulative": 18453,
    "readingDate": "2019-07-31T00:00:00.000Z"
  },
  {
    "cumulative": 18620,
    "readingDate": "2019-08-31T00:00:00.000Z"
  },
  {
    "cumulative": 18682,
    "readingDate": "2019-09-10T00:00:00.000Z"
  },
  {
    "cumulative": 18905,
    "readingDate": "2019-10-27T00:00:00.000Z"
  },
  {
    "cumulative": 19150,
    "readingDate": "2019-11-04T00:00:00.000Z"
  },
  {
    "cumulative": 19667,
    "readingDate": "2019-12-31T00:00:00.000Z"
  },
  {
    "cumulative": 19887,
    "readingDate": "2020-01-23T00:00:00.000Z"
  },
  {
    "cumulative": 20290,
    "readingDate": "2020-02-19T00:00:00.000Z"
  },
  {
    "cumulative": 20406,
    "readingDate": "2020-03-14T00:00:00.000Z"
  },
  {
    "cumulative": 20750,
    "readingDate": "2020-04-29T00:00:00.000Z"
  }
]
